META-INF/CompilerHints
Benchmarks/jmh_generated/RegexTest_jmhType_B3.class
Benchmarks/RegexTest$BenchMarkState.class
Benchmarks/jmh_generated/RegexTest_jmhType.class
Benchmarks/jmh_generated/RegexTest_BenchMarkState_jmhType_B1.class
TestMaven.class
Benchmarks/RegexTest.class
Benchmarks/jmh_generated/RegexTest_control_jmhTest.class
Benchmarks/jmh_generated/RegexTest_regexMaskAllCombined_jmhTest.class
META-INF/BenchmarkList
Benchmarks/jmh_generated/RegexTest_BenchMarkState_jmhType.class
Benchmarks/jmh_generated/RegexTest_jmhType_B1.class
Benchmarks/jmh_generated/RegexTest_BenchMarkState_jmhType_B3.class
Benchmarks/jmh_generated/RegexTest_regexMaskAll_jmhTest.class
Benchmarks/jmh_generated/RegexTest_BenchMarkState_jmhType_B2.class
Benchmarks/jmh_generated/RegexTest_jmhType_B2.class
